…
``` r
library ("tidyverse")
#> ── Attaching core tidyverse packages ──── tidyverse 2.0.0 ──
#> ✔ dplyr     1.1.4     ✔ readr     2.1.5
#> ✔ forcats   1.0.0     ✔ stringr   1.5.1
#> ✔ ggplot2   3.5.2     ✔ tibble    3.3.0
#> ✔ lubridate 1.9.4     ✔ tidyr     1.3.1
#> ✔ purrr     1.1.0     
#> ── Conflicts ────────────────────── tidyverse_conflicts() ──
#> ✖ dplyr::filter() masks stats::filter()
#> ✖ dplyr::lag()    masks stats::lag()
#> ℹ Use the conflicted package (<http://conflicted.r-lib.org/>) to force all conflicts to become errors
iris.tibble <- tibble(iris)
iris.tibble
#> # A tibble: 150 × 5
#>    Sepal.Length Sepal.Width Petal.Length Petal.Width Species
#>           <dbl>       <dbl>        <dbl>       <dbl> <fct>  
#>  1          5.1         3.5          1.4         0.2 setosa 
#>  2          4.9         3            1.4         0.2 setosa 
#>  3          4.7         3.2          1.3         0.2 setosa 
#>  4          4.6         3.1          1.5         0.2 setosa 
#>  5          5           3.6          1.4         0.2 setosa 
#>  6          5.4         3.9          1.7         0.4 setosa 
#>  7          4.6         3.4          1.4         0.3 setosa 
#>  8          5           3.4          1.5         0.2 setosa 
#>  9          4.4         2.9          1.4         0.2 setosa 
#> 10          4.9         3.1          1.5         0.1 setosa 
#> # ℹ 140 more rows
```

Tibbles can also be formed from vectors automatically creating a column vector.


``` r
tibble(x = fruit)   # data set fruit in package stringr
#> # A tibble: 80 × 1
#>    x           
#>    <chr>       
#>  1 apple       
#>  2 apricot     
#>  3 avocado     
#>  4 banana      
#>  5 bell pepper 
#>  6 bilberry    
#>  7 blackberry  
#>  8 blackcurrant
#>  9 blood orange
#> 10 blueberry   
#> # ℹ 70 more rows
```
…
####	Pivotting

The functions `pivot_longer()` and `pivot_wider()` are used to convert data into long or wide format respectively. Consider the long data set Rabbit in package `MASS`.


``` r
library (MASS)
#> 
#> Attaching package: 'MASS'
#> The following object is masked from 'package:dplyr':
#> 
#>     select
tibble (Rabbit)
#> # A tibble: 60 × 5
#>    BPchange   Dose Run   Treatment Animal
#>       <dbl>  <dbl> <fct> <fct>     <fct> 
#>  1     0.5    6.25 C1    Control   R1    
#>  2     4.5   12.5  C1    Control   R1    
#>  3    10     25    C1    Control   R1    
#>  4    26     50    C1    Control   R1    
#>  5    37    100    C1    Control   R1    
#>  6    32    200    C1    Control   R1    
#>  7     1      6.25 C2    Control   R2    
#>  8     1.25  12.5  C2    Control   R2    
#>  9     4     25    C2    Control   R2    
#> 10    12     50    C2    Control   R2    
#> # ℹ 50 more rows
```
…
For the converse, the command below pivots the wide tibble, `rabbit`, to long format. 


``` r
rabbit |> pivot_longer(cols = -Dose, names_to = "Treat.comb", 
                       values_to = "BPchange")
#> # A tibble: 60 × 3
#>     Dose Treat.comb    BPchange
#>    <dbl> <chr>            <dbl>
#>  1  6.25 R1_Control_C1     0.5 
#>  2  6.25 R2_Control_C2     1   
#>  3  6.25 R3_Control_C3     0.75
#>  4  6.25 R4_Control_C4     1.25
#>  5  6.25 R5_Control_C5     1.5 
#>  6  6.25 R1_MDL_M1         1.25
#>  7  6.25 R2_MDL_M2         1.4 
#>  8  6.25 R3_MDL_M3         0.75
#>  9  6.25 R4_MDL_M4         2.6 
#> 10  6.25 R5_MDL_M5         2.4 
#> # ℹ 50 more rows
```

Note that the column headings now form a single variable. To separate the combination of variables into different columns, we need the following command:
  

``` r
rabbit |> 
  pivot_longer(cols = -Dose,
               names_to = c("animal","treatment","run"),
               names_pattern ="(.*)_(.*)_(.*)",
               values_to = "BPchange")
#> # A tibble: 60 × 5
#>     Dose animal treatment run   BPchange
#>    <dbl> <chr>  <chr>     <chr>    <dbl>
#>  1  6.25 R1     Control   C1        0.5 
#>  2  6.25 R2     Control   C2        1   
#>  3  6.25 R3     Control   C3        0.75
#>  4  6.25 R4     Control   C4        1.25
#>  5  6.25 R5     Control   C5        1.5 
#>  6  6.25 R1     MDL       M1        1.25
#>  7  6.25 R2     MDL       M2        1.4 
#>  8  6.25 R3     MDL       M3        0.75
#>  9  6.25 R4     MDL       M4        2.6 
#> 10  6.25 R5     MDL       M5        2.4 
#> # ℹ 50 more rows
```
…
The functioning of the verbs will be illustrated with `UScereal` in the package `MASS`.


``` r
library (MASS)
cereal <- tibble (UScereal)
cereal
#> # A tibble: 65 × 11
#>    mfr   calories protein   fat sodium fibre carbo sugars
#>    <fct>    <dbl>   <dbl> <dbl>  <dbl> <dbl> <dbl>  <dbl>
#>  1 N         212.   12.1   3.03   394. 30.3   15.2  18.2 
#>  2 K         212.   12.1   3.03   788. 27.3   21.2  15.2 
#>  3 K         100     8     0      280  28     16     0   
#>  4 G         147.    2.67  2.67   240   2     14    13.3 
#>  5 K         110     2     0      125   1     11    14   
#>  6 G         173.    4     2.67   280   2.67  24    10.7 
#>  7 R         134.    2.99  1.49   299.  5.97  22.4   8.96
#>  8 P         134.    4.48  0      313.  7.46  19.4   7.46
#>  9 Q         160     1.33  2.67   293.  0     16    16   
#> 10 G          88     4.8   1.6    232   1.6   13.6   0.8 
#> # ℹ 55 more rows
#> # ℹ 3 more variables: shelf <int>, potassium <dbl>,
#> #   vitamins <fct>
```

The function `select()` allows for extracting one or more columns from a data set. The columns can be names or referred to by index. Using the function `everything()` in conjunction with `select()` is useful to sort or reorder the columns of a data set.


``` r
dplyr::select (cereal, calories)        # select only column calories
#> # A tibble: 65 × 1
#>    calories
#>       <dbl>
#>  1     212.
#>  2     212.
#>  3     100 
#>  4     147.
#>  5     110 
#>  6     173.
#>  7     134.
#>  8     134.
#>  9     160 
#> 10      88 
#> # ℹ 55 more rows
dplyr::select (cereal, calories, fat)   # select two columns
#> # A tibble: 65 × 2
#>    calories   fat
#>       <dbl> <dbl>
#>  1     212.  3.03
#>  2     212.  3.03
#>  3     100   0   
#>  4     147.  2.67
#>  5     110   0   
#>  6     173.  2.67
#>  7     134.  1.49
#>  8     134.  0   
#>  9     160   2.67
#> 10      88   1.6 
#> # ℹ 55 more rows
dplyr::select (cereal, c(5,7:8))        # select by index
#> # A tibble: 65 × 3
#>    sodium carbo sugars
#>     <dbl> <dbl>  <dbl>
#>  1   394.  15.2  18.2 
#>  2   788.  21.2  15.2 
#>  3   280   16     0   
#>  4   240   14    13.3 
#>  5   125   11    14   
#>  6   280   24    10.7 
#>  7   299.  22.4   8.96
#>  8   313.  19.4   7.46
#>  9   293.  16    16   
#> 10   232   13.6   0.8 
#> # ℹ 55 more rows
dplyr::select (cereal, -c(1,9,11))      # select columns to exclude
#> # A tibble: 65 × 8
#>    calories protein   fat sodium fibre carbo sugars
#>       <dbl>   <dbl> <dbl>  <dbl> <dbl> <dbl>  <dbl>
#>  1     212.   12.1   3.03   394. 30.3   15.2  18.2 
#>  2     212.   12.1   3.03   788. 27.3   21.2  15.2 
#>  3     100     8     0      280  28     16     0   
#>  4     147.    2.67  2.67   240   2     14    13.3 
#>  5     110     2     0      125   1     11    14   
#>  6     173.    4     2.67   280   2.67  24    10.7 
#>  7     134.    2.99  1.49   299.  5.97  22.4   8.96
#>  8     134.    4.48  0      313.  7.46  19.4   7.46
#>  9     160     1.33  2.67   293.  0     16    16   
#> 10      88     4.8   1.6    232   1.6   13.6   0.8 
#> # ℹ 55 more rows
#> # ℹ 1 more variable: potassium <dbl>
dplyr::select (cereal, calories, fibre, everything()) 
#> # A tibble: 65 × 11
#>    calories fibre mfr   protein   fat sodium carbo sugars
#>       <dbl> <dbl> <fct>   <dbl> <dbl>  <dbl> <dbl>  <dbl>
#>  1     212. 30.3  N       12.1   3.03   394.  15.2  18.2 
#>  2     212. 27.3  K       12.1   3.03   788.  21.2  15.2 
#>  3     100  28    K        8     0      280   16     0   
#>  4     147.  2    G        2.67  2.67   240   14    13.3 
#>  5     110   1    K        2     0      125   11    14   
#>  6     173.  2.67 G        4     2.67   280   24    10.7 
#>  7     134.  5.97 R        2.99  1.49   299.  22.4   8.96
#>  8     134.  7.46 P        4.48  0      313.  19.4   7.46
#>  9     160   0    Q        1.33  2.67   293.  16    16   
#> 10      88   1.6  G        4.8   1.6    232   13.6   0.8 
#> # ℹ 55 more rows
#> # ℹ 3 more variables: shelf <int>, potassium <dbl>,
#> #   vitamins <fct>
      # reorder with calories first, followed by fibre
```

The `rename()` function changes one of more column names. The companion function `rename_with()` can be used to apply a function to column headings, such as `tolower()` and `toupper()` to change the case of column headings.


``` r
rename (cereal, Manufacturer=mfr)
#> # A tibble: 65 × 11
#>    Manufacturer calories protein   fat sodium fibre carbo
#>    <fct>           <dbl>   <dbl> <dbl>  <dbl> <dbl> <dbl>
#>  1 N                212.   12.1   3.03   394. 30.3   15.2
#>  2 K                212.   12.1   3.03   788. 27.3   21.2
#>  3 K                100     8     0      280  28     16  
#>  4 G                147.    2.67  2.67   240   2     14  
#>  5 K                110     2     0      125   1     11  
#>  6 G                173.    4     2.67   280   2.67  24  
#>  7 R                134.    2.99  1.49   299.  5.97  22.4
#>  8 P                134.    4.48  0      313.  7.46  19.4
#>  9 Q                160     1.33  2.67   293.  0     16  
#> 10 G                 88     4.8   1.6    232   1.6   13.6
#> # ℹ 55 more rows
#> # ℹ 4 more variables: sugars <dbl>, shelf <int>,
#> #   potassium <dbl>, vitamins <fct>
rename_with (cereal, toupper, starts_with("F"))
#> # A tibble: 65 × 11
#>    mfr   calories protein   FAT sodium FIBRE carbo sugars
#>    <fct>    <dbl>   <dbl> <dbl>  <dbl> <dbl> <dbl>  <dbl>
#>  1 N         212.   12.1   3.03   394. 30.3   15.2  18.2 
#>  2 K         212.   12.1   3.03   788. 27.3   21.2  15.2 
#>  3 K         100     8     0      280  28     16     0   
#>  4 G         147.    2.67  2.67   240   2     14    13.3 
#>  5 K         110     2     0      125   1     11    14   
#>  6 G         173.    4     2.67   280   2.67  24    10.7 
#>  7 R         134.    2.99  1.49   299.  5.97  22.4   8.96
#>  8 P         134.    4.48  0      313.  7.46  19.4   7.46
#>  9 Q         160     1.33  2.67   293.  0     16    16   
#> 10 G          88     4.8   1.6    232   1.6   13.6   0.8 
#> # ℹ 55 more rows
#> # ℹ 3 more variables: shelf <int>, potassium <dbl>,
#> #   vitamins <fct>
```


New variables can be added or created from existing columns with the function `mutate()`. The newly formed variables are immediately available for creating more variables. Variables can be removed by transforming them to `NULL` or using the `.keep` argument.


``` r
mutate (cereal, fat.vs.pr = fat/protein, mfr=NULL) |>
     dplyr::select (fat.vs.pr, everything())
#> # A tibble: 65 × 11
#>    fat.vs.pr calories protein   fat sodium fibre carbo
#>        <dbl>    <dbl>   <dbl> <dbl>  <dbl> <dbl> <dbl>
#>  1     0.250     212.   12.1   3.03   394. 30.3   15.2
#>  2     0.250     212.   12.1   3.03   788. 27.3   21.2
#>  3     0         100     8     0      280  28     16  
#>  4     1         147.    2.67  2.67   240   2     14  
#>  5     0         110     2     0      125   1     11  
#>  6     0.667     173.    4     2.67   280   2.67  24  
#>  7     0.5       134.    2.99  1.49   299.  5.97  22.4
#>  8     0         134.    4.48  0      313.  7.46  19.4
#>  9     2.00      160     1.33  2.67   293.  0     16  
#> 10     0.333      88     4.8   1.6    232   1.6   13.6
#> # ℹ 55 more rows
#> # ℹ 4 more variables: sugars <dbl>, shelf <int>,
#> #   potassium <dbl>, vitamins <fct>
mutate (cereal, fat.vs.pr = fat/protein, 
                 comb.var = sodium + fat.vs.pr,
                 new.var=1:nrow(cereal), .keep="used")
#> # A tibble: 65 × 6
#>    protein   fat sodium fat.vs.pr comb.var new.var
#>      <dbl> <dbl>  <dbl>     <dbl>    <dbl>   <int>
#>  1   12.1   3.03   394.     0.250     394.       1
#>  2   12.1   3.03   788.     0.250     788.       2
#>  3    8     0      280      0         280        3
#>  4    2.67  2.67   240      1         241        4
#>  5    2     0      125      0         125        5
#>  6    4     2.67   280      0.667     281.       6
#>  7    2.99  1.49   299.     0.5       299.       7
#>  8    4.48  0      313.     0         313.       8
#>  9    1.33  2.67   293.     2.00      295.       9
#> 10    4.8   1.6    232      0.333     232.      10
#> # ℹ 55 more rows
```

Why is it useful to pipe the mutated tibble above to select? In comparison, `relocate()` makes it easy to move blocks of columns.


``` r
relocate (cereal, shelf)
#> # A tibble: 65 × 11
#>    shelf mfr   calories protein   fat sodium fibre carbo
#>    <int> <fct>    <dbl>   <dbl> <dbl>  <dbl> <dbl> <dbl>
#>  1     3 N         212.   12.1   3.03   394. 30.3   15.2
#>  2     3 K         212.   12.1   3.03   788. 27.3   21.2
#>  3     3 K         100     8     0      280  28     16  
#>  4     1 G         147.    2.67  2.67   240   2     14  
#>  5     2 K         110     2     0      125   1     11  
#>  6     3 G         173.    4     2.67   280   2.67  24  
#>  7     1 R         134.    2.99  1.49   299.  5.97  22.4
#>  8     3 P         134.    4.48  0      313.  7.46  19.4
#>  9     2 Q         160     1.33  2.67   293.  0     16  
#> 10     1 G          88     4.8   1.6    232   1.6   13.6
#> # ℹ 55 more rows
#> # ℹ 3 more variables: sugars <dbl>, potassium <dbl>,
#> #   vitamins <fct>
relocate (cereal, cal=calories, .before = fat)
#> # A tibble: 65 × 11
#>    mfr   protein   cal   fat sodium fibre carbo sugars shelf
#>    <fct>   <dbl> <dbl> <dbl>  <dbl> <dbl> <dbl>  <dbl> <int>
#>  1 N       12.1   212.  3.03   394. 30.3   15.2  18.2      3
#>  2 K       12.1   212.  3.03   788. 27.3   21.2  15.2      3
#>  3 K        8     100   0      280  28     16     0        3
#>  4 G        2.67  147.  2.67   240   2     14    13.3      1
#>  5 K        2     110   0      125   1     11    14        2
#>  6 G        4     173.  2.67   280   2.67  24    10.7      3
#>  7 R        2.99  134.  1.49   299.  5.97  22.4   8.96     1
#>  8 P        4.48  134.  0      313.  7.46  19.4   7.46     3
#>  9 Q        1.33  160   2.67   293.  0     16    16        2
#> 10 G        4.8    88   1.6    232   1.6   13.6   0.8      1
#> # ℹ 55 more rows
#> # ℹ 2 more variables: potassium <dbl>, vitamins <fct>
relocate(cereal, where(is.factor), .after=last_col())
#> # A tibble: 65 × 11
#>    calories protein   fat sodium fibre carbo sugars shelf
#>       <dbl>   <dbl> <dbl>  <dbl> <dbl> <dbl>  <dbl> <int>
#>  1     212.   12.1   3.03   394. 30.3   15.2  18.2      3
#>  2     212.   12.1   3.03   788. 27.3   21.2  15.2      3
#>  3     100     8     0      280  28     16     0        3
#>  4     147.    2.67  2.67   240   2     14    13.3      1
#>  5     110     2     0      125   1     11    14        2
#>  6     173.    4     2.67   280   2.67  24    10.7      3
#>  7     134.    2.99  1.49   299.  5.97  22.4   8.96     1
#>  8     134.    4.48  0      313.  7.46  19.4   7.46     3
#>  9     160     1.33  2.67   293.  0     16    16        2
#> 10      88     4.8   1.6    232   1.6   13.6   0.8      1
#> # ℹ 55 more rows
#> # ℹ 3 more variables: potassium <dbl>, mfr <fct>,
#> #   vitamins <fct>
```

The `filter()` function select rows from a tibble, based on any operator that evaluates to a column of `TRUE` / `FALSE` values equal to the number of rows.


``` r
filter (cereal, fat<1)
#> # A tibble: 23 × 11
#>    mfr   calories protein   fat sodium fibre carbo sugars
#>    <fct>    <dbl>   <dbl> <dbl>  <dbl> <dbl> <dbl>  <dbl>
#>  1 K         100     8        0   280  28     16     0   
#>  2 K         110     2        0   125   1     11    14   
#>  3 P         134.    4.48     0   313.  7.46  19.4   7.46
#>  4 R         110     2        0   280   0     22     3   
#>  5 K         100     2        0   290   1     21     2   
#>  6 K         110     1        0    90   1     13    12   
#>  7 K         110     2        0   220   1     21     3   
#>  8 R         133.    2.67     0   253.  1.33  24     6.67
#>  9 K         147.    1.33     0   267.  1.33  18.7  14.7 
#> 10 K         125     3.75     0     0   3.75  17.5   8.75
#> # ℹ 13 more rows
#> # ℹ 3 more variables: shelf <int>, potassium <dbl>,
#> #   vitamins <fct>
…
#>  2 K         110     2        0   125   1     11    14   
#>  3 K         100     2        0   290   1     21     2   
#>  4 K         110     1        0    90   1     13    12   
#>  5 K         110     2        0   220   1     21     3   
#>  6 K         147.    1.33     0   267.  1.33  18.7  14.7 
#>  7 K         125     3.75     0     0   3.75  17.5   8.75
#>  8 K         179.    4.48     0   358.  7.46  20.9  17.9 
#>  9 K         100     3        0   320   1     20     3   
#> 10 K         180     4        0     0   4     30    12   
#> 11 K         110     2        0   290   0     22     3   
#> 12 K         110     6        0   230   1     16     3   
#> # ℹ 3 more variables: shelf <int>, potassium <dbl>,
#> #   vitamins <fct>
filter (cereal, fat<1 | mfr=="K")
#> # A tibble: 32 × 11
#>    mfr   calories protein   fat sodium fibre carbo sugars
#>    <fct>    <dbl>   <dbl> <dbl>  <dbl> <dbl> <dbl>  <dbl>
#>  1 K         212.   12.1   3.03   788. 27.3   21.2  15.2 
#>  2 K         100     8     0      280  28     16     0   
#>  3 K         110     2     0      125   1     11    14   
#>  4 P         134.    4.48  0      313.  7.46  19.4   7.46
#>  5 R         110     2     0      280   0     22     3   
#>  6 K         100     2     0      290   1     21     2   
#>  7 K         110     1     0       90   1     13    12   
#>  8 K         220     6     6      280   8     20    14   
#>  9 K         110     2     0      220   1     21     3   
#> 10 R         133.    2.67  0      253.  1.33  24     6.67
#> # ℹ 22 more rows
#> # ℹ 3 more variables: shelf <int>, potassium <dbl>,
#> #   vitamins <fct>
filter(cereal, between(sugars, 10, 20))
#> # A tibble: 38 × 11
#>    mfr   calories protein   fat sodium fibre carbo sugars
#>    <fct>    <dbl>   <dbl> <dbl>  <dbl> <dbl> <dbl>  <dbl>
#>  1 N         212.   12.1   3.03   394. 30.3   15.2   18.2
#>  2 K         212.   12.1   3.03   788. 27.3   21.2   15.2
#>  3 G         147.    2.67  2.67   240   2     14     13.3
#>  4 K         110     2     0      125   1     11     14  
#>  5 G         173.    4     2.67   280   2.67  24     10.7
#>  6 Q         160     1.33  2.67   293.  0     16     16  
#>  7 G         160     1.33  4      280   0     17.3   12  
#>  8 G         220     6     4      280   4     26     14  
#>  9 G         110     1     1      180   0     12     13  
#> 10 K         110     1     0       90   1     13     12  
#> # ℹ 28 more rows
#> # ℹ 3 more variables: shelf <int>, potassium <dbl>,
#> #   vitamins <fct>
```

The verb `arrange()` refers to sorting the rows according to the values in one or more columns.


``` r
arrange (cereal, fibre)
#> # A tibble: 65 × 11
#>    mfr   calories protein   fat sodium fibre carbo sugars
#>    <fct>    <dbl>   <dbl> <dbl>  <dbl> <dbl> <dbl>  <dbl>
#>  1 Q        160     1.33  2.67   293.      0  16    16   
#>  2 G        160     1.33  4      280       0  17.3  12   
#>  3 G        110     1     1      180       0  12    13   
#>  4 R        110     2     0      280       0  22     3   
#>  5 G        110     1     1      180       0  12    13   
#>  6 P        147.    1.33  1.33   180       0  17.3  16   
#>  7 P        114.    2.27  0       51.1     0  12.5  17.0 
#>  8 G        147.    1.33  1.33   373.      0  20    12   
#>  9 P         82.7   0.752 0      135.      0  10.5   8.27
#> 10 G         73.3   1.33  0.667  173.      0  14     2   
#> # ℹ 55 more rows
#> # ℹ 3 more variables: shelf <int>, potassium <dbl>,
#> #   vitamins <fct>
…
