Chapter 11 R graphics: Round II | Introduction into R Applications and Programming: A Tutorial
…
11.14.5 Line plot

To illustrate plotting lines with ggplot2 we will create a small data set \(y_a=log(x)\)⁡ and \(y_b=2log(x)\) with \(0 < x< 1\).

x <- seq(from = 0.01, to = 0.99, len = 100) 
y <- c(log(x), 2 * log(x))   
z <- rep(c("a", "b"), each = 100) 

dat <- tibble(x=rep(x,2), y, z) 
dat
#> # A tibble: 200 × 3
#>         x     y z    
#>     <dbl> <dbl> <chr>
#>  1 0.01   -4.61 a    
#>  2 0.0199 -3.92 a    
#>  3 0.0298 -3.51 a    
#>  4 0.0397 -3.23 a    
#>  5 0.0496 -3.00 a    
#>  6 0.0595 -2.82 a    
#>  7 0.0694 -2.67 a    
#>  8 0.0793 -2.53 a    
#>  9 0.0892 -2.42 a    
#> 10 0.0991 -2.31 a    
#> # ℹ 190 more rows
…
